Song Data Project
…
Radio edits

Extended versions

Misc mixes/versions

I think maybe we can leave remixes possibly treating them as reimaginings of songs or somewhat to the same vein that songs have samples from other tracks are in themselves a separate track. Maybe the more difficult is dealing with the other cases. An example that comes to mind is Smooth Operator by Sade (seems like only one of the 3 versions is in the data). Theres a single version, a remastered version, and I believe an album version where theres an immediate difference between the remastered and album version.

I think the duplicated() function finds exact duplicates of rows.

duplicates <- data[duplicated(data),]
duplicates

## # A tibble: 3,909 x 15
##    song_name   song_popularity song_duration_ms acousticness danceability energy
##    <chr>                 <dbl>            <dbl>        <dbl>        <dbl>  <dbl>
##  1 Sex on Fire              81           203346      0.00172        0.542  0.905
##  2 Use Somebo~              79           230760      0.00552        0.276  0.715
##  3 Hips Don't~              84           218093      0.284          0.778  0.824
##  4 Hotel Cali~              83           391376      0.00574        0.579  0.508
##  5 Me and Bob~              69           271333      0.302          0.453  0.464
##  6 Imagine - ~              77           187866      0.907          0.547  0.257
##  7 Let It Be ~              78           243026      0.631          0.443  0.403
##  8 Rocket Man~              80           281613      0.386          0.602  0.522
##  9 My Sweet L~              78           281226      0.0794         0.538  0.704
## 10 Tangled up~              63           341626      0.414          0.421  0.661
## # ... with 3,899 more rows, and 9 more variables: instrumentalness <dbl>,
## #   key <dbl>, liveness <dbl>, loudness <dbl>, audio_mode <dbl>,
## #   speechiness <dbl>, tempo <dbl>, time_signature <dbl>, audio_valence <dbl>
…
nrow(data) - nrow(data_2)

## [1] 3909

Using the grepl function to find any instance of single,remastered, and radio edit/mix versions of tracks.

#Function was found via stackoverflow
#https://stackoverflow.com/questions/10128617/test-if-characters-are-in-a-string
data_3 <- data_2[!(grepl('Single',data_2$song_name,fixed=TRUE) |
                 grepl('Remaster',data_2$song_name,fixed=TRUE) |
                 grepl('Radio',data_2$song_name,fixed=TRUE)),]
data_3

## # A tibble: 14,276 x 15
##    song_name   song_popularity song_duration_ms acousticness danceability energy
##    <chr>                 <dbl>            <dbl>        <dbl>        <dbl>  <dbl>
##  1 Boulevard ~              73           262333     0.00552         0.496  0.682
##  2 In The End               66           216933     0.0103          0.542  0.853
##  3 Seven Nati~              76           231733     0.00817         0.737  0.463
##  4 By The Way               74           216933     0.0264          0.451  0.97 
##  5 How You Re~              56           223826     0.000954        0.447  0.766
##  6 Bring Me T~              80           235893     0.00895         0.316  0.945
##  7 Last Resort              81           199893     0.000504        0.581  0.887
##  8 Are You Go~              76           213800     0.00148         0.613  0.953
##  9 Mr. Bright~              80           222586     0.00108         0.33   0.936
## 10 Sex on Fire              81           203346     0.00172         0.542  0.905
## # ... with 14,266 more rows, and 9 more variables: instrumentalness <dbl>,
## #   key <dbl>, liveness <dbl>, loudness <dbl>, audio_mode <dbl>,
## #   speechiness <dbl>, tempo <dbl>, time_signature <dbl>, audio_valence <dbl>
…
data_3[is.na(data_3)]

## <unspecified> [0]

#data_3[grepl('Swimming Pools (Drank)',data_3$song_name,fixed=TRUE),]

#This is the only entry for this song in the dataset
#data_3[grepl("Wouldn't It Be Nice",data_3$song_name,fixed=TRUE),]
#nrow(data_3)
data_4 <- data_3[!(grepl('Mix',data_3$song_name,fixed=TRUE) | 
       grepl('Version',data_3$song_name,fixed=TRUE)),]
data_4

## # A tibble: 14,050 x 15
##    song_name   song_popularity song_duration_ms acousticness danceability energy
##    <chr>                 <dbl>            <dbl>        <dbl>        <dbl>  <dbl>
##  1 Boulevard ~              73           262333     0.00552         0.496  0.682
##  2 In The End               66           216933     0.0103          0.542  0.853
##  3 Seven Nati~              76           231733     0.00817         0.737  0.463
##  4 By The Way               74           216933     0.0264          0.451  0.97 
##  5 How You Re~              56           223826     0.000954        0.447  0.766
##  6 Bring Me T~              80           235893     0.00895         0.316  0.945
##  7 Last Resort              81           199893     0.000504        0.581  0.887
##  8 Are You Go~              76           213800     0.00148         0.613  0.953
##  9 Mr. Bright~              80           222586     0.00108         0.33   0.936
## 10 Sex on Fire              81           203346     0.00172         0.542  0.905
## # ... with 14,040 more rows, and 9 more variables: instrumentalness <dbl>,
## #   key <dbl>, liveness <dbl>, loudness <dbl>, audio_mode <dbl>,
## #   speechiness <dbl>, tempo <dbl>, time_signature <dbl>, audio_valence <dbl>
…
